Chapter 4 Supplement to Chapters 17 and 19 | STA238: Probability, Statistics, and Data Analysis
…
## [1] "2007"

# PROBLEM 2: wide to long
# Use the tidyr::gather() function for "gather"ing columns and putting them
# into one column:
ridership %>%
  tidyr::gather(month,revenue,Jan:Dec)

## # A tibble: 156 x 3
##    Year            month revenue  
##    <chr>           <chr> <chr>    
##  1 2007 YTD Actual Jan   $70600000
##  2 2008 YTD Actual Jan   $72700000
##  3 2009 YTD Actual Jan   $69300000
##  4 2010 YTD Actual Jan   $72200000
##  5 2011 YTD Actual Jan   $75300000
##  6 2012 YTD Actual Jan   $75500000
##  7 2013 YTD Actual Jan   $93200000
##  8 2014 YTD Actual Jan   $92200000
##  9 2015 YTD Actual Jan   $90600000
## 10 2016 YTD Actual Jan   $90800000
## # … with 146 more rows
…
