Chapter 2 Supplement to Chapters 15 and 16 | STA238: Probability, Statistics, and Data Analysis
…
nrow(apartmentclean) - nrow(apartmentfiltered) # Dropped 567 rows.

## [1] 564

# Now create the table of averages:
apartmentfiltered %>%
  group_by(ward) %>%
  summarize(avg_score = mean(score))

## # A tibble: 26 x 2
##    ward  avg_score
##    <chr>     <dbl>
##  1 01         71.5
##  2 02         73.0
##  3 03         70.5
##  4 04         68.2
##  5 05         71.7
##  6 06         72.1
##  7 07         69.8
##  8 08         73.5
##  9 09         67.5
## 10 10         72.2
## # … with 16 more rows
Bah! What happened? Why are there these NA values?

NA is the value R uses to mean “missing”. We have to hope that whether a
rental apartment building’s score is missing is not related to what that score is,
that is, we hope apartments with higher or lower scores aren’t missing more often.

We will ignore missingness for now. To do this, use the na.rm = TRUE option in
mean:

apartmentsummary <- apartmentfiltered %>%
  group_by(ward) %>%
  summarize(avg_score = mean(score,na.rm = TRUE))
apartmentsummary

## # A tibble: 26 x 2
##    ward  avg_score
##    <chr>     <dbl>
##  1 01         71.5
##  2 02         73.0
##  3 03         70.5
##  4 04         68.2
##  5 05         71.7
##  6 06         72.1
##  7 07         69.8
##  8 08         73.5
##  9 09         67.5
## 10 10         72.2
## # … with 16 more rows
…
