Chapter 8 Supplement to Chapter 21 | STA238: Probability, Statistics, and Data Analysis
…
## Observations: 3,437
## Variables: 5
## $ ward          <chr> "04", "19", "11", "04", "07", "03", "17", "17", "0…
## $ score         <dbl> 71, 77, 71, 78, 98, 76, 93, 72, 74, 78, 73, 76, 57…
## $ property_type <chr> "PRIVATE", "PRIVATE", "PRIVATE", "SOCIAL HOUSING",…
## $ year_built    <dbl> 1976, 1953, 1948, 1920, 2017, 1967, 2015, 1970, 19…
## $ address       <chr> "2350  DUNDAS ST W", "9  STAG HILL DR", "130  MACP…

# Make a table of average scores for private residences (i.e. not social housing)
apartmentclean %>%
  filter(property_type == "PRIVATE") %>%
  group_by(ward) %>%
  summarize(avg_score = mean(score))

## # A tibble: 26 x 2
##    ward  avg_score
##    <chr>     <dbl>
##  1 01         71.5
##  2 02         73.0
##  3 03         70.5
##  4 04         68.2
##  5 05         71.7
##  6 06         72.1
##  7 07         69.8
##  8 08         73.5
##  9 09         67.5
## 10 10         72.2
## # … with 16 more rows
…
