Chapter 4 Statistical Models | STA238: Probability, Statistics, and Data Analysis
…
## [1] "2007"

# PROBLEM 2: wide to long
# Use the tidyr::pivot_longer() function for gathering columns and putting them
# into one column:
ridership %>%
  tidyr::pivot_longer(
    Jan:Dec, # Collect columns Jan through Dec, including everything between
    names_to = "month", # Create a new column called "month" which contains the names of the old columns
    values_to = "revenue" # Create a new column called "revenue" which contains the values of the old columns
  )

## # A tibble: 156 x 3
##    Year            month revenue   
##    <chr>           <chr> <chr>     
##  1 2007 YTD Actual Jan   $70600000 
##  2 2007 YTD Actual Feb   $131200000
##  3 2007 YTD Actual Mar   $204600000
##  4 2007 YTD Actual Apr   $264900000
##  5 2007 YTD Actual May   $322000000
##  6 2007 YTD Actual Jun   $395100000
##  7 2007 YTD Actual Jul   $452100000
##  8 2007 YTD Actual Aug   $507500000
##  9 2007 YTD Actual Sep   $585600000
## 10 2007 YTD Actual Oct   $646900000
## # … with 146 more rows
…
