Chapter 2 Introduction to Data Analysis: Data Input and Basic Summaries | Probability, Statistics, and Data Analysis
…
nrow(apartmentclean) - nrow(apartmentfiltered) # Dropped 567 rows.

[1] 564

# Now create the table of averages:
apartmentfiltered %>%
  group_by(ward) %>%
  # na.rm = TRUE: ignore missing values
  summarize(avg_score = mean(score,na.rm = TRUE))

`summarise()` ungrouping output (override with `.groups` argument)

# A tibble: 26 x 2
   ward  avg_score
   <chr>     <dbl>
 1 01         71.5
 2 02         73.0
 3 03         70.5
 4 04         68.2
 5 05         71.7
 6 06         72.1
 7 07         69.8
 8 08         73.5
 9 09         67.5
10 10         72.2
# … with 16 more rows
…
